<svg xmlns="http://www.w3.org/2000/svg" xmlns:xlink="http://www.w3.org/1999/xlink" width="900" height="450" viewBox="0 0 899.99999 449.99998">
    <defs>
        <marker orient="auto" id="a" overflow="visible">
            <path d="M-10.69-4.437L1.328-.017-10.69 4.401c1.92-2.61 1.909-6.18 0-8.84z" fill-rule="evenodd" stroke="#000" stroke-width=".688" stroke-linejoin="round"/>
        </marker>
    </defs>
    <g id="classpath" class="bullet step-11 substep" data-order="2" transform="translate(-3.876 -153.79)">
        <ellipse cx="160.987" cy="284.077" rx="125.67" ry="123.026" fill="none" stroke="#000" stroke-width=".92"/>
        <path class="uml" fill="#fff" stroke="#000" stroke-width=".982" d="M14.367 267.208h288.409v49.598H14.367z"/>
        <text style="line-height:100%;-inkscape-font-specification:'Arial, Normal';text-align:center" x="158.591" y="300.228" font-weight="400" font-size="28" font-family="Arial" letter-spacing="0" word-spacing="0" text-anchor="middle">
            <tspan x="158.591" y="300.228">System ClassLoader</tspan>
        </text>
    </g>
    <g id="bootclasspath" class="bullet step-10 substep" data-order="3" transform="translate(-3.876 -153.79)">
        <path class="uml" fill="#fff" stroke="#000" stroke-width=".994" d="M598.659 487.855h295.54v49.586h-295.54z"/>
        <text style="line-height:100%;-inkscape-font-specification:'Arial, Normal';text-align:center" x="746.02" y="520.869" font-weight="400" font-size="28" font-family="Arial" letter-spacing="0" word-spacing="0" text-anchor="middle">
            <tspan x="746.02" y="520.869">Bootstap ClassLoader</tspan>
        </text>
    </g>
    <g class="bullet step-12 substep" id="parent-first" data-order="1">
        <path d="M300.6 291.837c275.076 1.45 430.666 50.574 438.369 191.87" fill="none" stroke="#000" stroke-width="2.215" marker-end="url(#a)" transform="translate(-3.876 -153.79)"/>
        <text style="line-height:100%;-inkscape-font-specification:'Arial, Normal';text-align:center" x="464.102" y="342.63" font-weight="400" font-size="28" font-family="Arial" letter-spacing="0" word-spacing="0" text-anchor="middle" transform="translate(-3.876 -153.79)">
            <tspan x="464.102" y="342.63">Parent</tspan><tspan x="464.102" y="370.63">First</tspan>
        </text>
    </g>
</svg>
